error log start from line:
something wrong at n is: 17; i is: 7
something wrong at n is: 17; i is: 18
something wrong at n is: 23; i is: 2
something wrong at n is: 46; i is: 16
something wrong at n is: 115; i is: 2
something wrong at n is: 162; i is: 20
something wrong at n is: 173; i is: 15
something wrong at n is: 242; i is: 22
something wrong at n is: 243; i is: 20